[{"page":1,"pages":7,"per_page":10,"total":66,"sourceid":"2","lastupdated":"2026-04-08"},[{"indicator":{"id":"EG.ELC.RNWX.ZS","value":"Electricity production from renewable sources, excluding hydroelectric (% of total)"},"country":{"id":"1W","value":"World"},"countryiso3code":"WLD","date":"2025","value":null,"unit":"","obs_status":"","decimal":1},{"indicator":{"id":"EG.ELC.RNWX.ZS","value":"Electricity production from renewable sources, excluding hydroelectric (% of total)"},"country":{"id":"1W","value":"World"},"countryiso3code":"WLD","date":"2024","value":null,"unit":"","obs_status":"","decimal":1},{"indicator":{"id":"EG.ELC.RNWX.ZS","value":"Electricity production from renewable sources, excluding hydroelectric (% of total)"},"country":{"id":"1W","value":"World"},"countryiso3code":"WLD","date":"2023","value":null,"unit":"","obs_status":"","decimal":1},{"indicator":{"id":"EG.ELC.RNWX.ZS","value":"Electricity production from renewable sources, excluding hydroelectric (% of total)"},"country":{"id":"1W","value":"World"},"countryiso3code":"WLD","date":"2022","value":null,"unit":"","obs_status":"","decimal":1},{"indicator":{"id":"EG.ELC.RNWX.ZS","value":"Electricity production from renewable sources, excluding hydroelectric (% of total)"},"country":{"id":"1W","value":"World"},"countryiso3code":"WLD","date":"2021","value":12.4213916892576,"unit":"","obs_status":"","decimal":1},{"indicator":{"id":"EG.ELC.RNWX.ZS","value":"Electricity production from renewable sources, excluding hydroelectric (% of total)"},"country":{"id":"1W","value":"World"},"countryiso3code":"WLD","date":"2020","value":11.4542533147266,"unit":"","obs_status":"","decimal":1},{"indicator":{"id":"EG.ELC.RNWX.ZS","value":"Electricity production from renewable sources, excluding hydroelectric (% of total)"},"country":{"id":"1W","value":"World"},"countryiso3code":"WLD","date":"2019","value":10.0257728750493,"unit":"","obs_status":"","decimal":1},{"indicator":{"id":"EG.ELC.RNWX.ZS","value":"Electricity production from renewable sources, excluding hydroelectric (% of total)"},"country":{"id":"1W","value":"World"},"countryiso3code":"WLD","date":"2018","value":8.9931692685583,"unit":"","obs_status":"","decimal":1},{"indicator":{"id":"EG.ELC.RNWX.ZS","value":"Electricity production from renewable sources, excluding hydroelectric (% of total)"},"country":{"id":"1W","value":"World"},"countryiso3code":"WLD","date":"2017","value":8.24362756072412,"unit":"","obs_status":"","decimal":1},{"indicator":{"id":"EG.ELC.RNWX.ZS","value":"Electricity production from renewable sources, excluding hydroelectric (% of total)"},"country":{"id":"1W","value":"World"},"countryiso3code":"WLD","date":"2016","value":7.357428807255,"unit":"","obs_status":"","decimal":1}]]